{
  "type": "service_account",
  "project_id": "vv-stack-example",
  "private_key_id": "87060c86a1dac1990eadf09b02425a71ad78fa12",
  "private_key": "-----BEGIN PRIVATE KEY-----\nMIIEvgIBADANBgkqhkiG9w0BAQEFAASCBKgwggSkAgEAAoIBAQDCZKIlpOkOkdbf\nVYjTux1gFzo4s/47LnRg1HChx2aOxUPa91E2o8zjQYRm2iAE++esPj8Ee91S+ym7\nSMlA4aIsu/CGPvdIdtuq8ot1cFzGaxddu16AXtiuXuIUXi1MKvfZ741tAmWOQ6n1\nG/XtLndPp2qYaD82oZjig8pmYnanGL3xYViW3e1DESQygBSh4tU9ls8lq9AF9z5B\neC6x30qH5AcalJvcjLWrzmuCAGKnVnvvUBevSi04/gK5GwnmTHLjjmX8EBupqVOP\nYyjj8Bq2U6oy8ulqz7MkH2bP8zmELPqtz9ZRTFsbhr0IFCyuIHqF5ceot+N0etUA\n/6jDB+U7AgMBAAECggEAWlLvIqWvIrVyDWDNjHAXlKQGSf2cZfxOWAWt9gXUagdP\n4ajkBAr1My0oq6+zjA1OVvKvTlKNgrawa9TEqpCMzdNfzcjpFrMfm51KXn2gphNx\njnx2yxgG/3KYAtXFn2whsRKFeL7R2FopWPoueZALIShNt9ZMdQJ+KtYI0Cz1K+tc\nJDxWtVJegZv2eyMtAh9Wu8xmgax27Ab+OEVosL/maZJgTBsyxuzY7o5dpq21eECC\nLgt7yZAywjIqzMHNiIMG4rdXpXAgN9ejGG3c4/VbmcOoy3TPL0dt7RWlp6ru/azo\nrRWc5Vdf+YVNRJ1Es/4DE54u1W3VVRVZ1J3iWqaOWQKBgQDpeuxnt+bUfDiJoVxs\nrsc9DUhKL7yMa6rmN8f58BybO671RMPPlxc+1cWYRvBEayDCZpAtb4/BabR2LHHM\n2ilHLCLsNdSdRpbnq3HLw/3BD6lWBd4yRnTtdh3Lspc2DoDx5UQHOzEBp3mLYSD0\nbZEzjGLNpBMfYCxXLyeDtR2fgwKBgQDVJJMa4fUX3E8XwqVKxBtJ8gLY3CsBmumi\nHLucOO0gC73Pzur5OLRlA7Kg21K7gHGlFYup9i+ABUSfZwGQ/sQOlbgeFlnplR+F\nEGTppny4uyV3km67/fOI6khRWtmtXEJR5cDPUWOu5ILmRNvuIaAAhB3imIfXERoh\nYPF4cxq96QKBgQC3yEW8Irs1OQ6772M0PaOhQApOMyNEmR+uFex4pfOukZ1XfShx\nCGqI0Ha4Nea8xGLGAzusOCu9QDqH5tYxPOzPFEPtETZqEn2IoKBzl7Pvuyc9CmNr\nyaASpy4vAEYci/Ad+KzC0Gnz9mMrPmpVXMW2AORpIKTYxrhAbGK7Pt6xhwKBgG6i\nl4EivLfv8VYiAO54MLoHVxb94YzpvlAZngCPQ/aYYaRWgX1vw6OTccsxTRZqq5LH\nRkGouis3kNE1BIkg1N/FM1bavz0R3NSTF+54LtEsw1v3tGb8gMcW5Qblo4vrEbm1\nCooScy27C38/SvGmnojmCyUti4VFKU0eJvkgtkbRAoGBAK9rUEQjv0/EhNijCbUm\nGIup1dLXjtMhbSaOzbmEN8+Qg0ies7hcNdIeSfKS/vfFwINF7kzVj+DPSI5u0MB6\nUjRwZKzdb4iMw7jnjJ33LmdLzMNal4ApgFm6rKRkT8e0PW+B5fxBKtC32JbtiCAn\nBQUstTeIVaUghYaL8qiaV3kW\n-----END PRIVATE KEY-----\n",
  "client_email": "firebase-adminsdk-ugpdk@vv-stack-example.iam.gserviceaccount.com",
  "client_id": "109110619026821768804",
  "auth_uri": "https://accounts.google.com/o/oauth2/auth",
  "token_uri": "https://oauth2.googleapis.com/token",
  "auth_provider_x509_cert_url": "https://www.googleapis.com/oauth2/v1/certs",
  "client_x509_cert_url": "https://www.googleapis.com/robot/v1/metadata/x509/firebase-adminsdk-ugpdk%40vv-stack-example.iam.gserviceaccount.com"
}
